<svg version="1.1" xmlns="http://www.w3.org/2000/svg" xmlns:xlink="http://www.w3.org/1999/xlink" x="0px" y="0px" width="12px" height="12px" viewBox="0 0 12 12">
    <g>
        <circle cx="6" cy="6" r="5" stroke="yellow" fill="yellow" />
    </g>
</svg>